26884,41,Arizona
29878,48,Atlanta
26610,47,Baltimore
37567,34,Boston
35589,38,Chicago Cubs
24271,45,Chicago White Sox
28978,50,Cincinnati
19797,37,Cleveland
32474,35,Colorado
37383,50,Detroit
19848,35,Houston
21748,37,Kansas City
37799,46,LA Angels
41040,45,LA Dodgers
27400,38,Miami
34955,49,Milwaukee
34275,31,Minnesota
28035,36,NY Mets
43733,51,NY Yankees
20728,50,Oakland
44021,40,Philadelphia
26148,45,Pittsburgh
26218,42,San Diego
41695,48,San Francisco
21258,40,Seattle
40272,50,St. Louis
19255,46,Tampa Bay
42719,50,Texas
25921,41,Toronto
30010,50,Washington